..................................................
..................................................
.............xxxxxxxxxxxxxxxxxxxx.................
.............x..................x.................
.............x.........k........x.................
.............x.........@........x.................
.............x.....b.......a....x.................
.............x..................x.................
.............x..................x.................
.............xxxxxxx.......xxxxxx.................
..................................................
..................................................
..................................................
..................................................
....d.............................................
..................................................
..................................................
..................................................
..................................................